{
    "Profile": "my-credentials-profile",
    "Region": "eu-west-1",
    "SecretsManagerId": "my-secret-manager-production",
    "Params": {
        "BucketName": "production-my-company-my-bucket"
    }
}
